﻿name;vicar;address;neighborhood;telephone;parishPriest
BEATO JESÚS EMILIO;Oriente;Calle 107B Nº 33A-08  ;El Pinar Avda Granizal ;310-368-3101;Pbro. Alexander Ramírez Aristizábal
EL PADRE NUESTRO                                                      ;Oriente; Carrera 27 Nº 107FA-138                                               ;Santo Domingo;292-78-98      ;Pbro. Mauricio Montoya Montoya
JESÚS AMIGO                                                           ;Oriente;Calle 97A Nº 24F-66                        ;Carpinello;572-33-79;Pbro. Julio César Ortíz Padilla
LA DIVINA PROVIDENCIA                                                 ;Oriente;Calle 108 Nº 43-032                                     ;Popular 1    ;258-64-38      ;Pbro. Vicente Augusto Restrepo Lopera       
LA ERMITA DE LA CANDELARIA;Oriente;Km7 Antigua Carretera Guarne                                          ;;313-6176560;Pbro. José Ignacio Galeano Jaramillo
LA PASIÓN DE NUESTRO SEÑOR JESUCRISTO                                 ;Oriente;Carrera 37 Nº 109-51 Nuevo Horizonte                                                 ;;528-45-77      ;Pbro. Alberto Víctor Cortés Mena
LA SANTA CRUZ                                                         ;Oriente;Carrera 42 D Nº 103-61                                      ;Santa Cruz;528-52-55      ;Pbro. Jhon Fredy Rúa Álvarez 
MARÍA MADRE DE LA ESPERANZA                                           ;Oriente;Calle 101C Nº 22D-16                                     ; La Esperanza;528-52-82      ;Pbro. José Efraín Caicedo Neira
NTRA. SRA. CONSOLADORA DEL CARPINELLO                                 ;Oriente;Cra 30 Nº 100B-030 Int 102 S.  ;Domingo La Aldea ;529-42-82      ;Padre Marco Antonio Gutiérrez Palma
NUESTRA SEÑORA DE GUADALUPE                                           ;Oriente;Carrera 40 Nº 95A-16                                        ;Guadalupe;258-64-82      ;Pbro. José Nicolás Atehortúa Atehortúa
NUESTRA SEÑORA DE LA MACARENA                                         ;Oriente;Calle 103 No. 36 B 24;;528-77-53      ;Pbro. Daniel Monsalve Correa
REINA DEL MONTE CARMELO                                               ;Oriente;Carrera 42B Nº 110BB-42                                               ;;292-84-09      ;Pbro. Gabriel Ignacio Molina Restrepo
SAN PÍO DE PIETRELCINA                                                ;Oriente;Carrera 22 A Nº 87A-50                                     ;Carambolas   ;572-25-62 / 528-31-09;Pbro. Jorge Adalberto Guacupal Tulcán
SANTA BEATRIZ DE SILVA                                                ;Oriente;Calle 96 Nº 36-048                                                    ;;236-81-06        ;Pbro. Eduard Alexander Soto Patiño            
SANTA CECILIA MÁRTIR                                                  ;Oriente;Calle 101B Nº 40-49                                                   ;;528-35-94        ;Pbro. Juan Camilo Cano Yepes     
SANTA MARÍA DEL CAMINO                                                ;Oriente;Calle 110B Nº 29-16                                  ;Santo Domingo ;528-43-79      ;Pbro. Luis Gerardo Piñeros Cañas                  
SANTO DOMINGO SAVIO                                                   ;Oriente;Calle 107B Nº 33A-09                                                  ;;529-30-84      ;Pbro. Rubén Darío Vanegas Hurtado
CRISTO SACERDOTE                                                      ;Oriente;Calle 80 Nº 51 B-32                                                  ;Miranda  ;583-32-69  ;Pbro. Jorge Villalobos Ortega
Cuasiparroquia Nuestra Señora de la Piedad                            ;Oriente;Carrera 44A Nº 95-87     ;;509-22-22;Pbro. Jorge Alonso Buitrago Orozco
EL AVE MARÍA                                                          ;Oriente;Carrera 48 A Nº 118-26                               ;Popular  2  ;461-76-53      ;Pbro. Eduard Jhoni Muñoz Sánchez
EL CALVARIO                                                           ;Oriente;Cra 48A Nº 77-04                                       ;Campo Valdes  ;212-01-30 / 212-59-28;Pbro. Freddy Alexander Bustamante Cataño
EL NIÑO DIOS -LOS ÁLAMOS-                                             ;Oriente;Carrera 52B Nº 87-36                                                    ;Los Alamos;211-27-21      ;Pbro. Enrique Coronell Correa           
EL SAGRARIO                                                           ;Oriente;Carrera 51C Nº 68 -09                                       ;Sevilla ;212-05-12      ;Pbro. Norberto Gómez Rodríguez            
LA TRANSFIGURACIÓN                                                    ;Oriente;Calle 104E Nº 50A-75                                                 ;Villa Niza Norte ;521-96-05  / 521-60-13    ;A.P. Pbro. Jesús Ernesto Estrada Correa        
MARÍA AUXILIADORA- ACEVEDO                                            ;Oriente;Calle 123 Nº 51 A - 29                                       ;Acevedo ;461-10-47;Pbro. Rodrigo David Cataño
MARÍA ROSA MÍSTICA                                                    ;Oriente;Carrera 51A - Nº 100B-65                                  ;Santa Cruz ;521-06-86      ;Pbro. Yecid Lederley Palacio Rúa           
NUESTRA SEÑORA DE LA ASUNCIÓN                                         ;Oriente;Calle 99 Nº 48 A- 11                                        ;Santa Cruz;521-26-15 / 236-22-61;A.P. Pbro. Federico Alberto Gómez Escobar
NUESTRA SEÑORA DE LAS VICTORIAS                                       ;Oriente;Carrera 49 Nº 107-60                                       ;Andalucía ;236-47-66 / 236-04-88;Pbro. Juan David Torres Martínez
NUESTRA SEÑORA DEL CONSUELO                                           ;Oriente;Carrera 58 Nº 85B-51                                                  ;;263-03-78      ;Pbro. Jorge Albeiro Pareja Sepúlveda
NUESTRA SEÑORA MARÍA REINA                                            ;Oriente;Carrera 44A  85-191                                        ;Manrique  ;212-57-38 / 233-17-36;Pbro. Mauricio Alexander Acevedo Cano         
SAN ANTONIO MARÍA CLARET-Campo Valdés                                 ;Oriente;Calle 81A Nº 49A-04                                     ;Campo Valdés ;509-68-92;Pbro. José Gustavo Gutiérrez Londoño
SAN CAYETANO                                                          ;Oriente;Calle 91 Nº 51-53                                            ;Aranjuez;521-88-50 / 236-80-73;Pbro. Andrés Fernando Restrepo López
SAN ESTEBAN PROTOMARTIR                                               ;Oriente;Calle 91 Nº 53-04                                         ;;521-45-12        ;Pbro. Carlos José Arias Castrillón
SAN ISIDRO LABRADOR                                                   ;Oriente;Carrera 52 Nº 94-121                                                  ;;236-35-88      ;Pbro. Alejandro Villa Urrego             
SAN LUIS GONZAGA                                                      ;Oriente;Calle 115 Nº 50A-20                                          ;Pablo VI;236-81-31        ;Pbro. Julio César Zuluaga Ruíz
SAN MARTÍN DE PORRES(Villa del Socorro)                               ;Oriente;Carrera 48 Nº 104A-05                                                 ;;521-14-78        ;Pbro. Jorge Orlando Salazar Penagos    
SAN NICOLÁS DE TOLENTINO                                              ;Oriente;Carrera 49 Nº 93-38                                                   ;;236-17-41  /521-37-88;Padre Víctor Javier Montenegro Páez
SAN ROBERTO BELARMINO                                                 ;Oriente;Carrera 42 Nº 20E - 51                                      ;Zamora   ;461-03-85      ;Pbro. Giovanni Gálvis Ramírez
SANTA RITA                                                            ;Oriente;Calle 21 Nº 40A-28                                                    ;;417-04-46;Pbro. Fredy Hernando Guiral Acevedo 
Cuasiparroquia San Lorenzo Mártir                                     ;Oriente;Carrera 24BB Nº 69D-168 ;Versalles 2;313-3270947  ;Padre Fray Félix Agobardo Jurado Basante OFM
EL BUEN PASTOR                                                        ;Oriente;Calle 70 Nº 43-80                                                     ;;212-05-68      ;Pbro. Wilfer Antonio Gómez Aristizábal
EL SANTO SEPULCRO                                                     ;Oriente;Calle 79 Nº 44-49 -    ;Manrique Central   ;516-33-35;Pbro. Fabián Emilio Ortega Jiménez
EL SEÑOR DE LAS MISERICORDIAS                                         ;Oriente;Calle 67 Nº 47-6                                       ;Manrique      ;263-58-21 / 263-58-41;Padre Luis Enrique Orozco Toro,O.C.D.
NUESTRA SEÑORA DE LA SABIDURÍA                                        ;Oriente;Calle 77 Nº 25-10                                          ;Santa Cruz ;214-83-55      ;Pbro. Wilson Hernán Lopera Berrío
NUESTRA SEÑORA DE LA SALUD                                            ;Oriente;Carrera 40 Nº 91 - 36                                                 ;;521-93-48      ;Pbro. Fernando Arturo Maya Toro
NUESTRA SEÑORA DE LAS NIEVES                                          ;Oriente;Calle  81 Nº 40-10                                 ;Manrique Oriental ;233-43-93 / 212-28-68;Pbro. Óliver Mauricio Álvarez Sepúlveda       
NUESTRA SEÑORA DEL JARDÍN                                             ;Oriente;Carrera 36 CC No. 82 A 45                                  ;;557-80-78;Pbro. Raúl Morales Neissa
SAN BLAS                                                              ;Oriente;Calle 89 Nº 36AA-03                                                   ;;263-17-67        ;Pbro. Carlos Enrique Betancur Peña
SAN JOSÉ - LA CIMA                                                    ;Oriente;Carrera 32 Nº 92C-38                                                  ;;211-36-00        ;Pbro. Arles de Jesús Arias Oquendo
SAN LUIS BELTRÁN                                                      ;Oriente;Calle 75B Nº 36-73                                        ;Manrique   ;598-86-43;Pbro. Mauricio Salazar Martínez 
SAN LUIS MARÍA GRIGNÓN DE MONFORT                                     ;Oriente;Calle 83B Nº 25C-66                                                   ;;5283063;Pbro. John Fredy Giraldo Hernández
SAN SEBASTIÁN                                                         ;Oriente;Carrera 29  Nº 71A-30                                       ;Manrique ;284-40-28      ;A.P. Pbro. Gustavo Adolfo Piedrahíta Aistizábal
SANTA ANA (Manrique-Oriental)                                         ;Oriente;Carrera 36 Nº 69-70                                                   ;;322-44-91  ;Pbro. Jorge José Luis Sánchez Gallego    
BEATO FEDERICO OZANAM                                                 ;Oriente;Carrera 24 Nº 57EE-15                                                 ;Colinas de Enciso;292-15-53      ;Pbro. Juan Felipe Escobar Escobar
EL NIÑO JESÚS DE PRAGA                                                ;Oriente;Carrera 29 A Nº  58-08                               ;Enciso ;284-83-66      ;Pbro. John Jairo Alzate Tabares     
HERMANO FRANCISCO                                                     ;Oriente;Carrera 56 Nº 25 - 14                                         ;Enciso El Pinal;578-64-46 / Desp 269-30-54      ;Padre Segundo Arsenio Anacona Becerra OFMC
LA NATIVIDAD DE NUESTRA SEÑORA                                        ;Oriente;Calle 58 Nº 21- 38                                         ;Los Mangos;2843072 / 2398679;Padre Jorge Luis Vargas Hernández
LA SAGRADA FAMILIA                                                    ;Oriente;Carrera 39A Nº 66C-66                                  ;Villa Hermosa ;254-72-38;Pbro. Álvaro Jaramillo Ramírez 
NTRA. SRA. DE LA INMACULADA CONCEPCIÓN DE TORCOROMA                   ;Oriente;Calle.54 Nº 16-57                                          ;Villatina;269-65-83      ;A.P. Pbro. John Jairo Tapias Chaverra
NUESTRA SEÑORA DE LA CARIDAD DEL COBRE                                ;Oriente;Calle 56B N° 17B-14 Int 110 ;Barrio Sol de Oriente;222-44-72      ;Pbro. Johnny de Jesús Pérez Tangarife
NUESTRA SEÑORA DE LOS DOLORES-Las Estancias                           ;Oriente;Calle 52 Nº 10-16                                   ;Las Estancias    ;226-03-37      ;Pbro. Helmut Jollman Parra Durando        
SAN FRANCISCO DE ASÍS                                                 ;Oriente;Carrera 23 Nº 52A-11                                      ;(La Planta) ;577-48-06;Pbro. Álvaro de Jesús Toro Escobar          
SAN MIGUEL ARCÁNGEL                                                   ;Oriente;Calle 63 Nº 40-60                                      ;Los Ángeles   ;2541082 / 2541102;Padre Jairo León Sánchez Ramírez
SAN POLICARPO                                                         ;Oriente;Carrera 33 Nº 53-46                                                   ;;2170433;Pbro. Jorge Alberto Yepes Garcés
SANTA MARíA DE LA SIERRA                                              ;Oriente;Calle 54B Nº 5 Este  08                                               ;;226-75-96      ;Padre Wandermber Geovanny Paredes Moreno SB
EL CONCILIO VATICANO II                                               ;Oriente;Calle 50 Nº 17-29                        ;Barrio Alejandro Echavarría ;269-42-63      ;Pbro. Gerson David Gallego Diosa
EL SALVADOR                                                           ;Oriente;Calle 40 Nº 35-21                            ;El Salvador       ;2173588 / 2174801;Pbro. Luis Javier Uribe Londoño                 
EL SEÑOR DE LA DIVINA MISERICORDIA                                    ;Oriente;Carrera 1 A  48-69/71                                                    ;;227-13-85      ;Pbro. Martín Emilio Román Giraldo
JESUCRISTO SEÑOR DE LA PAZ                                            ;Oriente;Carrera 24 Nº 34B-25                                                  ;;226-23-10      ;A.P. Pbro. Jairo Alberto Giraldo González
LA ERMITA DEL PADRE MARIANITO                                         ;Oriente;Calle 33 N° 19-165                                ;Eterna Primavera   ;214-66-43      ;Pbro. Ómar Ignacio Quintero Bedoya                
LA MILAGROSA                                                          ;Oriente;Calle 42 Nº 28-32                                      ;La Milagrosa  ;2698145 / 2698288 / 3163814611;Pbro. Pedro Justo Berrío Bolívar
MARÍA MADRE DE CRISTO SALVADOR                                        ;Oriente;Carrera 39 Nº 40A - 71                                               ;;216-75-62      ;Pbro. Juan Esteban Pineda Cañaveral
NUESTRA SEÑORA DE LORETO                                              ;Oriente;Calle 32 Nº 30 - 44                                        ;Loreto  ;257-50-15 / 557-50-15 / 217-06-88       ;Padre Gustavo Chaguendo Ceballos S.S.S. 
NUESTRA SEÑORA DEL CARMEN-SANTA ELENA                                 ;Oriente;Calle 51 A N° 48 este 676                                           ;Sector Vereda Barro Blanco  ;350-3928870;Pbro. Nelson Darío Gil Mazo
NUESTRA SEÑORA DEL ENCUENTRO                                          ;Oriente;Calle 34  34C-33                                 ;Sector Trincheras    ;239-33-05      ;Pbro. Orlando de Jesús Ruíz Otálvaro
NUESTRA SEÑORA DEL SAGRADO CORAZÓN                                    ;Oriente;Calle 48A  35-20                                    ;Buenos Aires     ;217-25-99        ;Pbro. John Arango Tobar           
NUESTRA SEÑORA DEL SANTÍSIMO SACRAMENTO                               ;Oriente;Calle 46 Nº 16CC-15                               ;Urbanización Cerros;269-18-98        ;Pbro. Carlos Andrés Franco Ceferino              
SAN ALBERTO MAGNO                                                     ;Oriente;Carrera 9A Nº 44AA-12                                         ;Caunces;293-61-91      ;Pbro. Carlos Mario Martínez Orozco
SAN JOAQUÍN Y SANTA ANA                                               ;Oriente;Carrera 15 BB Nº 36C -48                                              ;;227-26-76        ;Pbro. Silvio Guiller Peña Vanegas
SAN LORENZO DE LOS CAUNCES                                            ;Oriente;Calle 49 Nº 4-54                                                      ;;269-24-76        ;Pbro. Leonardo Esteban Areiza Areiza
SAN SIMÓN APÓSTOL                                                     ;Oriente;Carrera 27 Nº.38D-25                                                  ;;222-25-65      ;Pbro. Julián de Jesús Hernández Herrera
SANTA ELENA                                                           ;Oriente;Km.15 -Hacia el Aeropuerto                             ;Santa Elena  ;538-17-29 / 310-3935545      ;Pbro. Byron Darío Saldarriaga Restrepo
SANTA MÓNICA                                                          ;Oriente;Carrera 26 A Nº 49-40                                    ;Miraflores  ;222-18-16      ;Pbro. Jorge Iván Vásquez Londoño  
EL ESPÍRITU SANTO                                                     ;Oriente;Calle 63 Nº 49-32                                        ;Prado-Centro;284-00-20      ;Pbro. José Vicente Grisales Ortíz
EL SAGRADO CORAZÓN DE JESÚS-Centro                                    ;Oriente;Carrera 57A  Nº 44A-15                                                ;Barrio Triste;512-30-76 / 231-29-42        ;Pbro. Julián Darío Gómez Mejía
HOSPITAL SAN VICENTE DE PAÚL                                          ;Oriente;Calle 61 X Carrera 51D                                               ;Centro  ;444-13-33 EXT.2626-3402;Padre John Frey Rubiano Molina
JESÚS NAZARENO                                                        ;Oriente;Carrera 52 Nº 61-30                                          ;Centro  ;263-03-33 / 263-05-31;Padre Luis Alberto Vivanco Sotelo, CMF   
LA CATEDRAL                                                           ;Oriente;Carrera 48 Nº 56-64                                        ;Centro    ;513-34-53 / 513-22-69;Pbro. Bernardo de Jesús Restrepo Montoya     
LA VERACRUZ                                                           ;Oriente;Calle 51 Nº  52 -58                                    ;Centro  ;512-50-95 / 511-16-24;Pbro. Rafael Alberto Gómez Hincapié
LOS DOCE APÓSTOLES                                                    ;Oriente;Carrera 50 A Nº 58-47                                         ;Prado;557-63-22 / 501-71-16;Pbro. Milton Cesar Peña Perdomo SDS
MARÍA REINA DE LOS ÁNGELES                                            ;Oriente;Calle 60 Nº 41-63                                         ;Los Ángeles;580-30-60;Pbro. Samuel Ignacio Gálvez Osorio
NUESTRA SEÑORA DE LA CANDELARIA                                       ;Oriente;Calle 49A Nº 50-85                                                    ;;231-49-07 / 231-33-32;Mons. Luis Fernando Pérez Peláez      
NUESTRA SEÑORA DEL PERPETUO SOCORRO                                   ;Oriente;Calle 35 Nº 48-8                                                      ;;232-05-25 / 232-32-25;Pbro. Diego Fernando Bedoya Bonilla         
NUESTRA SEÑORA DEL PILAR                                              ;Oriente;Carrera 40 Nº 40-30                                      ;Las Palmas  ;239-00-27 / 239-28-16;Pbro. Sandro Alberto Restrepo Echavarría
NUESTRA SEÑORA DEL SUFRAGIO                                           ;Oriente;Carrera 39 N° 54 - 45 ;;216-47-32 / 216-55-15;Padre Vidal Niebles Ordoñez SDB       
SAN ANTONIO (Centro)                                                  ;Oriente;Carrera 48 Nº 44 - 55A                                                ;;511-73-74        ;Padre Fray Fabio León Castañeda Correa OFM       
SAN BENITO                                                            ;Oriente;Calle 51 Nº 56A-76                                                    ;;479-51-94;Padre Fray Francisco Lotero Matiz OFM            
SAN DIEGO                                                             ;Oriente;Calle 47A Nº 30-42                                                    ;;232-93-87      ;Pbro. Jairo Alfonso Girón López
SAN IGNACIO DE LOYOLA                                                 ;Oriente;Carrera 44 Nº 48-28                                                   ;;239-31-22 / 239-53-96;Pbro. Guillermo León Zuleta Salas
SAN JOSÉ (Centro)                                                     ;Oriente;Carrera 46 Nº 49-90                                                   ;;251-88-38 / 251-83-51;Pbro. Jorge Mario Acosta Gómez                 
SAN JUAN BOSCO-Centro                                                 ;Oriente;Calle 49 Nº 55-25                                                     ;;511-29-24 / 511-50-99;Padre Germán Eugenio Londoño Vásquez
TEMPLO SAN JUAN DE DIOS                                               ;Oriente;Carrera 54 Nº 49- 85                                                  ;;603-51-42;Pbro. Néstor de Jesús Alzate Álvarez
EL VERBO DIVINO                                                       ;Occidente;Calle 35A Nº 65D-8                                 ;Conquistadores    ;235-02-43      ;Padre Seby Ouseph SVD         
LA ERMITA DE JESÚS                                                    ;Occidente;Carrera 78 32E-5                                        ;Los Almendros ;250-41-60      ;Pbro. Hader de Jesús Gómez Gómez              
MADRE DEL VERBO DIVINO                                                ;Occidente;Carrera 66 Nº 42-116                                         ;Naranjal;230-07-28 / 253-27-33;Pbro. Julio César Martínez Giraldo
NUESTRA SEÑORA DE LA CONSOLATA                                        ;Occidente;Carrera 79 A N° 42 -42;;557-78-70;Pbro. Alexander Pareja Botero
NUESTRA SEÑORA DE LAS MERCEDES                                        ;Occidente;Cra 69 A # 46 B 34                             ;;587-36-67    ;Pbro. Julián Andrés Cano Echeverri     
NUESTRA SEÑORA DE LOURDES                                             ;Occidente;Calle 45 E Nº 75-65                                    ;Florida Nueva ;412-29-72 / 413-47-69;Pbro. Germán Darío Duque Ochoa
PERSONAL NUESTRA SEÑORA DE LAS MERCEDES                               ;Occidente;Carrera 69 A # 46 B 34;;587-36-67    ;Pbro. Julián Andrés Cano Echeverri     
SAN ATANASIO                                                          ;Occidente;Calle 59 Nº 65-44                                                  ;La Iguana   ;230-06-69        ;Pbro. Néstor Eduardo Mora Ortíz
SAN CLEMENTE MARÍA HOFBAUER                                           ;Occidente;Carrera 77D  53-40                                       ;Los Colores ;520-35-60      ;Padre Jerónimo Peñaloza Basto CSsR
SAN JOAQUÍN                                                           ;Occidente;Carrera 69 Nº C5-05                                                   ;;230-81-60 / 230-94-59;Pbro. Luis Humberto Arboleda Tamayo
SAN JUAN EVANGELISTA                                                  ;Occidente;Carrera 65 Nº 49A-13                                                  ;;434-10-56     ;Pbro. Mauricio Humberto Molina Molina             
SAN PEDRO Y SAN PABLO                                                 ;Occidente;Calle 49 Nº 77C-72                                          ;Estadio  ;234-71-43/421-51-19;Pbro. Daniel Fabiano Meneses Álvarez       
SANTA GEMA                                                            ;Occidente;Calle 33 Nº 81- 32                                                    ;;413-24-04/412-42-48;Padre Héctor Manuel Peña Lancheros
SANTA MARÍA MAGDALENA                                                 ;Occidente;Calle 57  Nº 64BB -51                            ;Carlos E. Restrepo  ;260-46-22        ;Pbro. Juan Diego Ruíz Arango
SANTA TERESITA DEL NIÑO JESÚS                                         ;Occidente;Calle 35 Nº 73 A- 45                                        ;Laureles ;250-29-03/250-28-63;Mons. Carlos Luque Aguilera
EL DIVINO MAESTRO                                                     ;Occidente;Calle 38 Nº 89A-24                                    ;Santa Mónica   ;492-86-15/492-95-32/496-95-31;Pbro. Deyron de Jesús Laverde Aguilar
EL ECCE HOMO                                                          ;Occidente;Calle 58 Nº 93 A-052                                     ;Blanquizal  ;426-21-69      ;Pbro. Luis Mauricio Echavarría Castañeda      
EMAÚS                                                                 ;Occidente;Carrera 81 Nº 53A -40                                      ;Ferrini ;234-34-67      ;Padre José Eliecer Balbín Giraldo,m.x.y.
LA DIVINA MISERICORDIA                                                ;Occidente;Carrera 88B N° 34C-28                                                 ;;253-01-77 /311-3586755     ;Pbro. John Fredy Pérez Zapata           
LA INMACULADA                                                         ;Occidente;Carrera 86 Nº 46-037                                     ;La Floresta ;250-58-31/416-55-78  ;Pbro. Jaime Humberto Henao Franco
LA PRESENTACIÓN DE NUESTRA SEÑORA                                     ;Occidente;Calle 45 GG Nº 78 A- 77                                           ;Velódromo    ;349-3550;Pbro. Diego Luis Gómez Muñoz
MARÍA MADRE DEL REDENTOR                                              ;Occidente;Calle 37 A Nº 95-43                                     ;Santa Mónica ;253-04-55      ;Pbro. Luis Gonzalo Carvajal Múnera
NUESTRA SEÑORA DE CHIQUINQUIRÁ                                        ;Occidente;Calle 37D Nº 81 A -72                                  ;Simón Bolívar ;413-78-78      ;Pbro. Gustavo Adolfo Díaz Molina
NUESTRA SEÑORA DE LOS DOLORES-La América                              ;Occidente;Carrera 84 Nº 44-87                                     ;La América  ;252-13-47;Pbro. Juan Manuel Bustamante Valencia
SAN BASILIO                                                           ;Occidente;Calle 58 Nº 102-05                                                    ;;422-12-16/437-07-81;Padre Óscar Fernando Gómez Soto        
SAN JOSÉ DE CALASANZ                                                  ;Occidente;Carrera 81A Nº 48A-75                                                 ;;234-06-07        ;Padre Asdrúbal Fabricio Muñoz Chávez Cch.P.
SAN MATÍAS APÓSTOL                                                    ;Occidente;Calle 51 Nº 84-45                                                     ;;264-93-79        ;Pbro. Óscar Emilio Restrepo Loaiza            
SANTA LUCIA                                                           ;Occidente;Calle 47F Nº 89A-147                                                  ;;234-42-94      ;Pbro. Juan Carlos Isaza Velásquez 
SANTA RITA DE CASIA                                                   ;Occidente;Calle 35B Nº 85-90                                                    ;;250-30-67/250-06-91;Pbro. Iván Darío Londoño López
EL DIVINO NIÑO-San Javier                                             ;Occidente;Calle 45 A Nº 107C-28                                                 ;;252-40-56/253-02-36;Pbro. Wilson Alcides Grajales Cano 
LA DIVINA PASTORA                                                     ;Occidente;Calle 39D Nº 112-100                                       ;San Javier-El Salado  ;557-96-44;Padre Luis Guillermo Trujillo Arboleda S.J.
LAS BIENAVENTURANZAS                                                  ;Occidente;Calle 39 B Nº 109-27                                  ;20 de Julio    ;301-63-08/311-590-03-03;Pbro. Samuel Arias Álvarez   
MARÍA MADRE DE LA DIVINA GRACIA                                       ;Occidente;Carrera 97A Nº 48DD-04;;253-27-33      ;Pbro. Gustavo Adolfo Zapata Álvarez
NAZARETH                                                              ;Occidente;Carrera.117 Nº 34AB-21                                                ;;253-88-54      ;Pbro. Cesár Eduardo González Chica            
NUESTRA SEÑORA DEL CARMEN -San Javier                                 ;Occidente;Carrera 99 Nº 42-26-                                     ;San Javier   ;492-22-22      ;Pbro. John Fredy Monsalve Marín      
SAN MIGUEL FEBRES CORDERO                                             ;Occidente;Calle 48A Nº 102-47                                        ;San Javier;493-09-07        ;Pbro. Duván Cardona Osorio   
SAN PEDRO APÓSTOL                                                     ;Occidente;Calle 48D Nº 110-49                                         ;San Javier;537-49-39;A.P. Pbro.Hugo Alberto Villa Gallego       
SANTA ANA DE LA QUIEBRA                                               ;Occidente;Calle 48DD Nº 99E 01                            ;" Barrio ""La Quiebra""  ";496-50-04      ;Pbro. Óscar Dario Colorado Montoya
SANTA LAURA MONTOYA                ;Occidente;Carrera 105B Nº34B-12                                       ; Belencito;496-80-71      ;Pbro. Jorge Ignacio Villa Urrego
SANTA ROSA DE LIMA                                                    ;Occidente;Calle 49 DD Nº 87-19                                                  ;;234-38-96      ;Pbro. Álvaro León Ruíz Sepúlveda 
TODOS LOS SANTOS                                                      ;Occidente;Carrera 120C Nº 42B-05                                                ;;492-46-82      ;Pbro. Carlos Andrés Flórez Madrid
CORPUS CHRISTI                                                        ;Occidente;Carrera 55 D Nº9 Sur 50                                   ;La Colinita;285-96-19      ;Pbro. Álvaro Pimienta Restrepo           
CRISTO REY                                                            ;Occidente;Cra 53 Nº 1 Sur 11                                          ;Guayabal ;255-16-39/255-02-79;Pbro. Julio Enrique Montoya Restrepo          
SANTA MARÍA DE GUADALUPE                            ;Occidente;Calle 9A Sur  82-30 Int. 316                                          ;;363-27-89      ;Pbro. Jesús Ovidio del Rio Arboleda         
JESÚS OBRERO                                                          ;Occidente;Calle 7 Nº 58-32                                          ;Campo Amor ;255-37-78/255-50-22      ;Pbro. Hernán Darío Escudero Betancur
LA FE                                                                 ;Occidente;Calle 22 Nº 57-10                                              ;La Fe ;479-93-84    ;Pbro. Martín Albeiro Jaramillo Montoya
LA INMACULADA REINA DE LA PAZ                                         ;Occidente;Carrera 65 G Nº 16A-230                                           ;Santa Fe   ;557-99-53;Pbro. Andrés Felipe Salazar Arbeláez
LA SANTÍSIMA TRINIDAD                                                 ;Occidente;Carrera 59 Nº 28-48                                       ;Trinidad   ;235-02-25      ;Pbro. Héctor Fabio Arredondo Arango     
MARÍA MADRE DE LOS HUÉRFANOS                                          ;Occidente;Carrera 50E Nº. 6 Sur 38                                   ;Guayabal  ;361-36-10/361-52-52;Pbro. Jorge Alberto Echavarría Enciso
SAN GABRIEL DE LA DOLOROSA                                            ;Occidente;Calle 9B Sur Nº 52B-40                                                ;;589-82-71;Pbro. José Fernando Marín Flórez
EL SANTO CURA DE ARS                                                  ;Occidente;Calle 30A Nº 84-25                                     ;Belen Los Alpes  ;238-80-03      ;Pbro. Diego Aurelio López López               
JESÚS DE LA BUENA ESPERANZA                                           ;Occidente;Carrera 69C Nº 32-41                                          ;Rosales ;235-06-39/557-76-63;Pbro. Orlando de Jesús Ramírez Gálvez           
JESÚS NAZARENO ( ALTAVISTA )                                          ;Occidente;Calle 18 Nº 105-115                                    ;Belén Altavista;342-33-97/238-19-19;Pbro. Pedro Agustín Muñoz Gómez    
JESÚS, MARÍA Y JOSÉ                                                   ;Occidente;Carrera 84F Nº 8-73                                             ;Belén;238-10-48/341-06-01;Padre José Yuba Arlabán  S.F.
LA RESURRECCIÓN                                                       ;Occidente;Carrera 72 Nº 13A - 25                              ;Belén-Las Playas ;343-31-02   ;Pbro. Wilson de Jesús Uribe González 
LA SANTA INFANCIA DE JESÚS                                            ;Occidente;Cra 83 Nº 5-5-Loma de los Bernal/Correspondencia. Calle 5 Nº 80C-130 Ap.908              ;;341-92-52/366-61-20;Pbro. Carlos Andrés Restrepo Cano
MADRE DEL AMOR DIVINO                                                 ;Occidente;Calle 20A Nº 79-01                                                    ;;353-44-61      ;Pbro. Ricardo León Calle Pérez                
MARÍA MADRE ADMIRABLE                                                 ;Occidente;Carrera 82B Nº 20-07                                     ;Alta Vista  ;342-85-95      ;Pbro. Juan David Quintero Molina
NUESTRA SEÑORA DE BELÉN                                               ;Occidente;Carrera 77 Nº 30 A - 17                                         ;Belén;2385206/3416145;Pbro. Bernardo Colmenares Gómez            
NUESTRA SEÑORA DE FÁTIMA                                              ;Occidente;Carrera 65 A Nº 32B-70                                  ;Fátima   ;239-29-42;Pbro. Jorge Humberto Monsalve Saldarriaga
NUESTRA SEÑORA DE LA ANUNCIACIÓN                                      ;Occidente;Calle 31C Nº 89A-30                                      ;Las Violetas;238-47-88      ;Pbro. Edwin Adolfo Ruíz Sánchez          
NUESTRA SEÑORA DEL ROSARIO DE LA PIEDRA                               ;Occidente;Calle 5 Sur Nº 80-05/Carrera 80 Nº 5 Sur 5 Casa Cural                                                  ;;311-6949546/354-38-87        ;Pbro. Heriberto Esneider Pérez Correa
SAN BARTOLOMÉ                                                         ;Occidente;Carrera 79  2B-29                                      ;Belén-Rincón  ;238-00-20        ;Pbro. Juan Guillermo Betancur López de Mesa
SAN BERNARDO                                                          ;Occidente;Carrera 73A Nº 21-8                                 ;Belén-San Bernardo;343-41-55        ;Mons. Francisco Javier Tobón Lopera            
SAN FRANCISCO JAVIER                                                  ;Occidente;Calle 20 A Nº 80C-7                                                   ;;256-24-27        ;Pbro. José Gustavo Blandón Bedoya
SAN JOSEMARÍA ESCRIVÁ DE BALAGUER                                     ;Occidente;Calle 31AA  107-50                                ;Belén Aguas Frías  ;557-91-15;Pbro. Daniel Zapata Penagos
SAN JUAN DE LA CRUZ                                                   ;Occidente;Carrera 81 Nº 28-145                                                  ;;341-73-89      ;Pbro. Orlando de Jesús González Vásquez           
SANTA JUANA DE ARCO                                                   ;Occidente;Diagonal 75C Nº 2A-125                                     ;La Mota   ;342-24-94      ;Pbro. Elkin de Jesús Mesa Gómez
SANTA MARÍA DE LA PAZ                                                 ;Occidente;Carrera 83A Nº 21-33 ;"Sector del Barrio ""Belén-Zafra""   ";341-94-66      ;Pbro. Juan Carlos Muriel Figueroa
SANTA MARÍA MAZZARELLO;Occidente;Carrera 79 Nº 3 Sur 35;;479-70-73 / 3206280404;Pbro. John Jairo Osorio Arango
EL SANTO EVANGELIO                                                    ;Norte;Carrera. 73B Nº 96-55                                   ;La Esperanza;471-14-50      ;Pbro. Yeison Armando Zapata Lopera         
LA SANTA MADRE DE DIOS                                                ;Norte;Calle 108 Nº 68A-25                                      ;Barrio Tejelo;464-84-54 / 464-84-60;Pbro. Wilson Ferney López Castrillón
NUESTRA SEÑORA DE LA VALVANERA                                        ;Norte;Carrera 74 Nº 104 A -4                                     ;Pedregal  ;538-93-63;Pbro. Hernán Darío Acevedo Agudelo 
NUESTRA SEÑORA DE LAS LAJAS                                           ;Norte;Carrera 69A Nº 92C-45                                                 ;;471-53-12 / 477-56-22;Pbro. Rodrigo Arcángel Restrepo Restrepo      
NUESTRA SEÑORA DE LAS MISERICORDIAS                                   ;Norte;Carrera 64 AA Nº 103D-14                                   ;Belalcazar;267-22-67      ;Pbro. Orlando de Jesús Morales Ruíz
NUESTRA SEÑORA DEL BUEN CONSEJO                                       ;Norte;Calle 103EE Nº 65-63 B.                                         ;Girardot ;557-54-41;Padre Argiro de Jesús Escobar Giraldo
SAN AGUSTÍN                                                           ;Norte;Calle 113 Nº 70-57                                          ;Florencia;273-03-71      ;Pbro. Diego Andrés Molina Henao
SAN ALFONSO MARÍA DE LIGORIO                                          ;Norte;Carrera 63C   96A-211                                                 ;;438-17-25        ;Pbro. Carlos Mario González González
SAN ANDRÉS APÓSTOL                                                    ;Norte;Carrera 67 Nº 93-34                                          ;La Unión;237-28-02      ;Pbro. Álvaro de Jesús Mejía Góez
SAN CAMILO DE LELIS                                                   ;Norte;Cra 64A Nº 111G-20                                   ;Toscana;461-36-94        ;A.P. Pbro. Iván de Jesús Arenas Hernández      
SAN CARLOS BORROMEO                                                   ;Norte;Carrera 75 Nº 91A-52                                       ;Kennedy;257-42-24 / 441-05-51;Pbro. Reinaldo Alonso Suárez Múnera      
SAN FERNANDO REY                                                      ;Norte;Carrera 70A Nº 91-11                                  ;Alfonso López;257-48-05;Pbro. Rafael Antonio Betancur Machado   
SAN GREGORIO MAGNO                                                    ;Norte;Carrera 65  113-86                                                    ;;580-51-00;Pbro. Hernán Carlos García Ceballos
SAN JUAN BAUTISTA PRECURSOR                                           ;Norte;Carrera 76C Nº 110A-39                                   ;Santander   ;273-00-27        ;Pbro. Samuel de Jesús Fernández Osorio
SAN JUAN CRISÓSTOMO                                                   ;Norte;Calle 107B Nº 81-05                                                   ;;478-47-13        ;A.P. Pbro. Reinaldo Fredy Ruíz Serna
SAN JUAN ÉUDES - Medellín;Norte;Carrera 64B  Nº 104A-36                                              ;;462-90-57;Pbro. John Camilo Muñoz Muñoz
SAN JUDAS TADEO                                                       ;Norte;Carrera 68 Nº 97-95                                                   ;;267-05-00/267-10-35;Pbro. Jorge Enrique Benjumea Betancur
SAN PEDRO CLAVER                                                      ;Norte;Carrera 64D Nº 75-14                                 ;Barrio Córdoba  ;441-87-81      ;Pbro. Jesús Bronson Arboleda Carmona
SANTA MARÍA DEL CARMEN                                                ;Norte;Carrera 80 Nº 103A-180                                                ;;471-28-63/267-47-16      ;Pbro. Émilson de Jesús Aguirre Sepúlveda
SANTA MARIANA DE JESÚS PAREDES                                        ;Norte;Carrera 83 Nº 98CC-11                                                 ;;477-74-12/269-07-69                     ;Padre ADAM KRASZEWSKI S.A.C.
SANTA TERESA DE CALCUTA-Medellín                                               ;Norte;Calle 101B Nº 73A-50 Casa Cural Calle 101B Nº 73A-64                                                 ;;471-67-52/559-84-32      ;Pbro. Orlando Alberto Jiménez Cadavid
SANTA TERESA DE JESÚS                                                 ;Norte;Carrera 83A Nº 104D-75                             ;Doce de Octubre   ;267-41-96      ;Pbro. Gabriel Jaime Urrego Restrepo
EL INMACULADO CORAZÓN DE MARÍA                                        ;Norte;Carrera 79 A Nº 94-79                               ;Barrio Miramar   ;257-83-75      ;Pbro. Wilmar Octavio González Chica                
EL SANTO ECCE HOMO                                                    ;Norte;Carrera 84  91AA-16                                                   ;;437-66-69      ;Pbro. Óscar Julián Muñoz Mejía
MADRE DE CRISTO REY                                                   ;Norte;Carrera 91 B Nº 77C-16                                               ;Robledo-Aures ;234-25-08      ;Pbro. Miguel Ángel Arroyave Ríos
MARÍA MADRE DE LA EUCARISTÍA                                          ;Norte;Calle 85 Nº 95-23                                                     ;;584-52-95;Pbro. León Fernando Montoya Ortega
NUESTRA SEÑORA DE LA ESPERANZA                                        ;Norte;Calle 79 A Nº  86-65                                    ;El Diamante  ;257-56-33      ;Pbro. Francisco Javier Saldarriaga Gil
SAN AMBROSIO                                                          ;Norte;Calle 80 Nº 72A-305 Portería                                          ;;442-59-23        ;Pbro. Juan Guillermo Villegas Gómez
SAN FELIPE NERI                                                       ;Norte;Carrera 88  77CC-09                                      ;Robledo;264-75-69        ;Pbro. Wilson de Jesús Restrepo Espinal   
SAN FRANCISCO DE SALES                                                ;Norte;Calle 78A Nº 93A-51                                   ;Aures-Robledo;264-06-95        ;Padre Diego León Patiño Patiño       
SAN GERMÁN                                                            ;Norte;Calle 66 Nº 74BB-10                                                   ;;260-67-13      ;Pbro. Jairo Alberto Cardona Álvarez         
SAN IGNACIO MÁRTIR                                                    ;Norte;Carrera 92  88-64                                        ;Villa-Sofía;441-71-33      ;Pbro. Víctor Hugo Márquez Mejía
SAN VICENTE DE PAÚL                                                   ;Norte;Calle 79D Nº 68-52                                    ;Barrio Córdoba ;257-23-24      ;Pbro. Jaime Humberto Duque Giraldo            
SANTA CECILIA                                                         ;Norte;Calle 78 Nº 69-176                                                    ;;441-22-06      ;Pbro. Héctor Castrillón Sánchez 
SANTA MARÍA LA VIRGEN                                                 ;Norte;Carrera 75 Nº 81-40                                   ;López de Mesa  ;442-37-10      ;Pbro. Ómar Alexander Cardona Rojas             
SANTO TOMÁS DE AQUINO                                                 ;Norte;Calle 76 Nº 80-46                                             ;Robledo;234-59-97;Padre Fray Jhon Wilber Alarcón Hincapié O.P.
MARÍA MADRE INMACULADA                                                ;Norte;Kilometro 28 via san pedro Vereda la Unión                                                       ;;388-07-20      ;Pbro. John Edison Adrián Ayala Flórez
NUESTRA SEÑORA DE LOS DESAMPARADOS                                    ;Norte;Carretera al Mar KM 14                                    ;Boquerón   ;319-7479494;Pbro. John Ever Zapata Yarce          
NUESTRA SEÑORA DE LOS DOLORES-Robledo                                 ;Norte;Calle 65 Nº 85-40                                             ;Robledo;234-00-80      ;Pbro. Jorge Iván Medina Arango                
NUESTRA SEÑORA DEL CAMINO                                             ;Norte;Vereda El Llano Carretera San Cristóbal                               ;;427-08-63      ;Pbro. Juan Carlos Jiménez Zuluaga
SAN ALBERTO HURTADO;Norte;Carrera 91 Nº. 65C-118                                                ;;366-55-13;Pbro. Jorge Alberto Ruíz Tobón
SAN CRISTÓBAL                                                         ;Norte;Calle 62  129-93                                      ;San Cristóbal;479-76-84/438-52-90;Pbro. Héctor Mario Buitrago Suárez            
SAN FÉLIX                                                             ;Norte;Carretera San Pedro Km. 22                                            ;;388-03-54      ;Pbro. Adrián Zuleta Ortíz                    
SAN FRANCISCO DE LA PAZ                                               ;Norte;Corg. S. Cristóbal-Vereda Pajarito                                    ;;426-24-98      ;Pbro. César Augusto Franco Ortíz
SAN IRENEO                                                            ;Norte;Carrera 94B Nº 64F-060                                        ;Robledo;426-09-27      ;Pbro. José Renato Montoya Muriel          
SAN JUAN XXIII                               ;Norte;Calle 64A N° 104-43                              ;;438-49-85 ;Pbro. Juan José Montoya Franco
SAN VICENTE FERRER                                                    ;Norte;Calle 54 Nº 123B-51                                      ;San Javier;427-80-88        ;Pbro. Jaime Alberto López Escobar            
SANTA MARGARITA MARÍA DE ALACOQUE                                     ;Norte;Carrera 106 Nº 62-15                                                  ;;420-05-70      ;Pbro. Ricardo Andrés Gutiérrez García
SANTA MARÍA DE LOS MILAGROS                            ;Norte;Carrera 121 Nº. 69-27 Direc Res: Calle 69 Cr.121-200 Int.206          ;;438-63-81/420-49-09      ;Pbro. Carlos Alberto Cardona Monsalve
SANTA TERESA DE LOS ÁNDES                         ;Norte;Calle 62A  119-12                                                     ;;438-51-25      ;Pbro. Alejandro Emilio Zapata García
SANTA TERESITA DE LISIEUX                                             ;Norte;"Calle 63 Nº 141-30 Int. 126  /Veredas ""Palenque"" parte baja                                         ";;427-54-54/427-85-41      ;Pbro. Giovanny Humberto Giraldo Giraldo
SANTOS LUIS Y CELIA;Norte;Carrera 95 Cra 95-64 Torre 4 Int. 9902;;;Pbro. Johan Paulo Carvajal Medina
DEL EMMANUEL                                                          ;Norte;Calle 52B Nº  65-08                                                ;Riachuelos;454-16-07      ;Pbro. Yeison Alejandro Suárez Sossa
EL DIVINO NIÑO                                                        ;Norte;Calle 76 Nº 63C-20                                                    ;Barrio Villas del Sol;454-09-11 /3005704879     ;Pbro. John Fredy Gómez Quintero    
EL DIVINO SALVADOR;Norte;Diagonal 68 N° 46B-18                                           ;Barrio Altos de Niquía ;481-97-79;Pbro. Henry Mauricio Molina Escobar 
EL SAGRADO CORAZÓN                                                    ;Norte;Carrera 68D Nº 59C-15                                   ;La Primavera ;229-71-65;Pbro. Rigoberto Velásquez Tobón
EL SANTO CRISTO                                                       ;Norte;Carrera 54 N° 52C-30                                                 ;El Rosario ;456-58-12      ;Pbro. Hernán Rivera Osorio           
GETSEMANÍ                                                             ;Norte;Calle 71 Nº 59-60                                                     ;Barrio Pachelly ;272-08-61      ;Pbro. Carlos Enrique Mesa Ochoa     
LA EPIFANÍA                                                           ;Norte;Transv. 56A Nº 57-44                                     ;El Carretero;275-08-20/275-80-98;Pbro. Juan Fernando Gómez Jiménez
LA PRECIOSA SANGRE                                                    ;Norte;Calle 51 Nº 54-87                                                  ;Barrio Pérez  ;275-14-14/275-02-25;Pbro. Carlos Fernando Vanegas Bonett          
NUESTRA SEÑORA DEL CARMEN-Bello                                       ;Norte;Carrera 63  Nº 57A 36                                                 ;;444-23-81/275-09-70/275-09-90;Pbro. Jorge Iván Rengifo Álvarez 
NUESTRA SEÑORA DEL ROSARIO-BELLO                                      ;Norte;Calle 51 Nº 49-44                                                     ;;275-05-54/275-48-43;Pbro. Carlos Arturo González Betancur         
REINA DE LOS APÓSTOLES                                                ;Norte;Avenida 48B Nº 61-15                                        ;NiquÍa   ;597-90-87;Padre Luis Fernán Rivera Giraldo Sdv
SAN BUENAVENTURA                                                      ;Norte;Carrera 51 Nº 67-76                                        ;Mirador;456-64-90/598-77-01        ;Padre Carlos Arturo Gil Yepes
SAN JUDAS APÓSTOL                                                     ;Norte;Carrera 69  77-107                                       ;Tierradentro ;275-96-31        ;Pbro. Carlos Andrés Rico Ortíz   
SANTA ANA (Bello)                                                     ;Norte;Carrera 56A Nº 42-140                                                 ;;272-89-73      ;Pbro. José Javier Jaramillo Gómez
SANTA CATALINA LABOURÉ                                                ;Norte;Carrera 47 Nº 56-18                                                   ;;556-78-54;Pbro. Manuel José Sánchez Villa               
SANTA INÉS -Bello                                                     ;Norte;Calle 49 Nº 46-51                                                     ;;275-01-90      ;Pbro. William de Jesús Restrepo Vásquez
SANTA MARTA                                                           ;Norte;Carrera 60 Nº 40-04                                                  ;;453-55-94/453-52-73;Pbro. Eusebio Antonio Jaramillo Muñoz         
SANTA MARÍA DE LA CANDELARIA                                          ;Norte;Diagonal 59 Nº 46-48                                                  ;;481-17-41      ;Pbro. Juan David Muñoz Flórez
SANTA MARÍA GORETTI                                                   ;Norte;Calle 65 Nº 63B-13                                                    ;;275-11-97      ;Pbro. Nicolás Sierra Echeverri
Cuasiparroquia SAN CIRILO DE JERUSALÉN;Norte;Calle 25CC Nº 80-25;;322-8769077;Padre Rafael Tadeo Carrillo Gómez MM
NUESTRA SEÑORA DE LA PROVIDENCIA                                      ;Norte;Carrera 58DD Nº 24-40                                                 ;;464-49-19/464-53-49;Pbro. Carlos Augusto Urrego Restrepo
SAN BERNABÉ APÓSTOL                                                   ;Norte;Calle 21 Nº 81A-28                                    ;Vereda Sauces  ;461-54-02/464-50-49;Pbro. John Dairo Correa Jiménez
SAN CIPRIANO                                                          ;Norte;Cra 69  21-14                                        ;La Maruchenga;464-18-41        ;Pbro. César Augusto Ramírez García
SAN JOSÉ OBRERO                                                       ;Norte;Calle 35A Nº 51-05                                                    ;;275-07-78        ;Pbro. José Luis Paniagua Restrepo 
SAN JUAN BOSCO - Bello                                                ;Norte;Carrera 57A Nº 36A-60                                                 ;;451-87-38        ;Pbro. Carlos Andrés Muñoz Hoyos  
SAN JUAN DE ÁVILA                                                     ;Norte;Calle 24A Nº 59A-158                                     ;Barrio Nuevo;273-62-89        ;Pbro. Carlos Mario Gavíria Rivas            
SAN JUAN PABLO II;Norte;Carrera 59 Nº 27B-427;;451-97-66;Pbro. Luis Carlos Rueda Arango
SAN LEOPOLDO MANDIC                                                   ;Norte;Carrera 55  27B-32                                         ;La Cabaña ;272-83-06/456-98-10        ;Mons. Jorge Aníbal Rojas Bustamante
SAN LORENZO DE BRINDIS                                                ;Norte;Calle 27 B N°. 58-30                             ;;454-33-35;Pbro. Luis Eduardo Yepes Zuleta
SAN PABLO APÓSTOL                                                     ;Norte;Carrera 76 Nº 20F-19                                   ;Barrio Paris  ;273-00-60        ;Pbro. Luis Fernando Arroyave Gutiérrez
SANTA CLARA DE ASÍS                                                   ;Norte;Calle 24A Nº 51A-33                                        ;La Cabaña ;273-96-94/462-51-83;Pbro. Rafael Orlando Jaramillo Zapata
JESÚS MISERICORDIOSO                                                  ;Norte;Avenida 38 Nº 55-118                                                  ;Niquía ;482-71-29/482-46-03;Pbro. Luis Raimundo Valencia Barrera
LA ASCENSIÓN DEL SEÑOR                                                ;Norte;Avenida 38 Nº 55-118                                                 ;Niquía  ;483-21-05/483-21-55;Pbro. Alexis  Mateus Rojas                    
MARÍA AUXILIO DE LOS CRISTIANOS                                       ;Norte;Diagonal 57 Av Nº 20-26                                              ;;600-02-84;Pbro. Luis Ángel Hurtado Henao
NUESTRA  SEÑORA DEL PERPETUO SOCORRO                                  ;Norte;Machado Carrera 83A Nº 44-21                                      ;Copacabana ;481-00-23      ;Pbro. Julio César Martínez Salazar
NUESTRA SEÑORA DE CHIQUINQUIRÁ                                        ;Norte;Diagonal 61 Nº 42-120 -Niquía                                          ;;481-35-22/243-54-97/481-51-11;Pbro. Álvaro León Murillo Cataño          
NUESTRA SEÑORA DE LA ASUNCIÓN                                         ;Norte;Calle 49 Nº 50-73                                     ;Plaza Principal /copacabana;274-01-22/274-80-08;Pbro. Jaime Alberto Ríos Gómez
NUESTRA SEÑORA DE LA NAVIDAD                                          ;Norte;"Sector del Barrio ""La Camila""                                         ";;467-96-05;Pbro. Robín Alexander Restrepo Restrepo
NUESTRA SEÑORA DE LA TERNURA                                          ;Norte;Carrera 47B Nº 64-60                                          ;Barrio La Misericordia/copacabana    ;401-11-90      ;Pbro. Juan Camilo García Zuluaga
NUESTRA SEÑORA DEL CARMEN-Copacabana                                  ;Norte;Vereda el Cabuyal                                                     ;;408-09-63        ;Pbro. Juan Guillermo López Tapias
NUESTRO AMIGO JESÚS                                                   ;Norte;Diagonal 55 No. 33-47;Bello;453-15-00      ;Pbro. Jader Gabriel Herrera Ruíz
SAN ANTONIO MARÍA CLARET-Bello                                        ;Norte;Diagonal 53 Nº 43-49                                     ;Niquía;481-68-47        ;Pbro. Bernardo de Jesús Agudelo García
SAN EDUARDO REY                                                       ;Norte;Diagonal 44  33-35                                     ;Fontidueño;481-08-81        ;Pbro. Oswaldo Javier Cabrera Ríos
SAN JERÓNIMO                                                          ;Norte;Calle 31 Nº 43 A 58                                        ;La Gabriela;461-04-08      ;Pbro. Luis Fernando Jiménez Jaramillo
SAN JUAN BAUTISTA DE LA SALLE                                         ;Norte;Autopista Norte Contíguo a Comfama                                    ;;274-60-22        ;A.P. Pbro. Diego Alberto Ossa Mora       
SAN JUAN DE LA TASAJERA                                               ;Norte;Calle 48 Nº 27-39                                                   ;Copacabana ;274-03-11        ;Pbro. Alexander Alonso Ospina Ospina
SAN MAXIMILIANO KOLBE                                                 ;Norte;Diagonal 67C Nº 40C-60                                        ;Niquia;482-76-10        ;Pbro. Luis Javier Cadavid Moscoso             
SANTA MARÍA DE LA LUZ;Norte;Vereda Zarzal (La Luz)                                                ;;274-70-48      ;Pbro. John Jairo Martínez Herrera
SANTO TOMÁS DE VILLANUEVA                                             ;Norte;Calle 56 Nº 56-101                                         ;Copacabana;274-99-94/274-62-18;Pbro. Luis Fernando Palacio Gómez
BEATO MARIANO DE JESÚS EUSE HOYOS                                    ;Sur;Carrera 24B Nº 17 - 110                                             ;El Poblado  ;266-08-13      ;Pbro. Óscar Augusto Álvarez Zea
LA DIVINA EUCARISTÍA                                                  ;Sur;Carrera 36 Nº 7-41 -Provenza                                          ;;311-55-30/311-53-49;Pbro. Hugo León Grajales Cano                 
LA VISITACIÓN                                                         ;Sur;Calle 5 Sur Nº 30-68.Transversal Inferior -          ; Los Gonzalez    ;266-08-46/268-20-77/268-80-92/3052539098;Pbro. Wilson de Jesús Álvarez Herrera         
SAN ANSELMO                                                           ;Sur;Carrera 42A Nº 30B-32                           ;Ciudadela San Diego  ;262-63-61/262-92-07;Pbro. Iván Darío Restrepo Salazar             
SAN JOSÉ (Poblado)                                                    ;Sur;Carrera 42 Nº 9-37                                                    ;;266-42-46/268-73-63;Pbro. Francisco Eduardo Toro Betancur         
SAN JOSÉ DE NAZARETH                                                  ;Sur;Carrera 33  29-105                                  ; Loma del Indio   ;320-6797644    ;Pbro. John Fredy Vásquez Zapata       
SAN JUAN APÓSTOL                                                      ;Sur;Carrera 25 Nº 1 A Sur 155 Int. 9507 Sector El Tesoro                ;El Poblado ;322-19-38;Pbro. Gustavo Alonso Montoya Montoya
SAN LUCAS                                                             ;Sur;Carrera 25B Nº 20 Sur 35                                              ;;3171250/3171265;Pbro. Luis Gabriel Botero Isaza
SANTA MARÍA DE LOS DOLORES                                            ;Sur;Carrera 45 Nº 6-94                                       ;El Poblado  ;2682869/2662623/310-4677862;Pbro. Carlos Alberto Moncada Franco           
SANTA MARÍA DE LOS ÁNGELES                                            ;Sur;Carrera 46 Nº 15 Sur-93                                    ;El Poblado;3131641/3136441;Pbro. Nevardo Cataño Castrillón
EL PORTAL DE JESÚS-ENVIGADO                                           ;Sur;Carrera 46A Nº 32 C-Sur-15                                            ;;299-19-71   ;Pbro. Jorge Andrés Marín González        
EL SAGRADO CORAZÓN DE JESÚS                                           ;Sur;Calle 48D Sur Nº 42C-85 ;Envigado;3330897/3332226;Pbro. Samuel Alberto Villa Garzón
LA NIÑA MARÍA                                                         ;Sur;Carrera 44 Nº 21 Sur 06  Zúñiga                                            ;;444-67-98/2707263;Pbro. José Camilo Arbeláez Montoya     
LA PURÍSIMA CONCEPCIÓN                                                ;Sur;Calle 36 Sur Nº 23-15                                               ;Loma del Chocho  ;336-10-75      ;Pbro. Carlos Mario Posada Arroyave
LA SANTA CRUZ DE ALCALÁ                                               ;Sur;Carrera 47 Nº 39 Sur 82                                             ;Alcalá  ;475-28-60;Pbro. Raúl Álvarez Morales             
MARÍA MADRE DE LA MISERICORDIA                                        ;Sur;Calle 50 Nº 43 A-57                                    ;Las Casitas   ;600-87-91;Pbro. Héctor Augusto Botero Osorio         
MARÍA REINA DE LA PAZ                                                 ;Sur;Calle 45 Sur Nº 42D-18                                      ;El Dorado ;2761978/2701247;Pbro. Jorge Alberto Álvarez Vásquez
NUESTRA SEÑORA DE LAS LOMAS                                           ;Sur;Carrera 27G Nº 36 Sur 51      ;Las Lomas;331-35-37/3137670477      ;Pbro. Rubén Darío Ospina Gil
NUESTRA SEÑORA DE LOS DOLORES-Sabaneta                                ;Sur;Calle 77 Sur   47B-07                                                 ;;366-03-34;Pbro. Jorge Edwin Martínez Arboleda
NUESTRA SEÑORA DEL CARMEN-Sabaneta                                    ;Sur;Calle 58 Sur  42-113                                                  ;;378-19-82      ;Pbro. Mauricio Antonio Valencia Escobar       
SAN BENITO ABAD                                                       ;Sur;Calle 23 Sur N° 27B-07                                        ;;3526947/5418628;Pbro. Nixon Alexander Puerta Villegas 
SAN FELIPE APÓSTOL                                                    ;Sur;Carrera 32 Nº 71 Sur 290                                              ;;479-56-21;Pbro. Víctor Samuel Villa Quintero      
SAN IGNACIO DE ANTIOQUIA                                              ;Sur;Carrera 40A Nº 46E Sur 43                                             ;;270-21-06;Pbro. John Alexander Úsuga Oquendo            
SAN JOSÉ -Envigado                                                    ;Sur;Calle 40 Sur Nº 29A-25                                                ;;332-77-76;Pbro. Nazareno Sánchez Rivera
SAN JUAN DIEGO;Sur;Cra 40 N° 49 D Sur 20;;209-30-13;Pbro. Luis Guillermo Orozco Sánchez
SAN MARCOS                                                            ;Sur;Calle 32 Sur Nº 43A-39                                                ;;276-44-21;Pbro. Gabriel Jaime Molina Vélez
SAN MATEO                                                             ;Sur;Transversal 34D Sur Nº 32C-23                                         ;;2760914/3327295;Pbro. Juan Pablo Cardona Quintero           
SAN RAFAEL                                                            ;Sur;Calle 40 Nº 40DD- Sur 26                               ;El Dorado    ;276-07-55      ;Pbro. Germán Sigifredo Valencia Jaramillo      
SANTA ANA (Sabaneta)                                                  ;Sur;Calle 70 Sur Nº 43B-49                                             ;;288-01-22;Pbro. Carlos Mario Ochoa Gómez       
SANTA BÁRBARA DE AYURÀ                                                ;Sur;Diagonal 31 Nº 34B- Sur 13                                            ;;276-03-37      ;Pbro. Alfredo de Jesús Hoyos Mejía
SANTA GERTRUDIS                                                       ;Sur;Carrera 42 Nº 37 Sur 20                                               ;;560-35-40/2760955;Pbro. Gerado Díaz Molina
SANTA MARÍA DE NAZARETH                                               ;Sur;Calle 41 Nº 24C-41 (105)                             ;Barrio La Mina   ;3325704/2763236;Pbro. Germán Darío Lopera Gil        
SANTIAGO APÓSTOL                                                      ;Sur;Carrera 24 E Nº 40 Sur 25                                             ;;557-93-50;Pbro. Diego Alejandro Gutiérrez Vásquez
CRISTO RESUCITADO                                                     ;Sur;Carrera 53 Nº 83A-00                                                  ;;285-27-37      ;Pbro. Diego León Montoya Gil         
NUESTRA SEÑORA DE LA RESURRECCIÓN;Sur;Calle 12C Sur Nº  53-199;;255-43-51;Pbro. Juan David Muriel Mejía  
EL CARMELO                                                            ;Sur;Calle 75 A Nº 49-36                                                   ;;2772718/2773295;Pbro. Jorge Alberto Muñoz Cuadros
EL DIVINO REDENTOR                                                    ;Sur;Calle 63 Nº 45-54 -Sedeco                                             ;;557-59-77;Pbro. Luis Alfonso Arredondo Salazar     
EL DIVINO ROSTRO                                                      ;Sur;Carrera 56A Nº 55A-25                                     ;El Tablazo ;371-65-31      ;Pbro. Orlando de Jesús Gallego Cortés
EL NIÑO JESÚS DE CALATRAVA                                            ;Sur;Carrera 61 Nº 56-105                                                ;Calatrava  ;541-77-36;Pbro. Mauricio de Jesús Galeano Hernández 
JESÚS CAÍDO                                                           ;Sur;Carrera 44 Nº 42-10                                  ;Barrio San José ;612-95-16/479-78-05;Pbro. Wildeman de Jesús David Manco
LA ERMITA DE LA SANTA CRUZ                                            ;Sur;Carrera 52D con 76                                                ;El Ajizal;376-74-81      ;A.P. Pbro. Nelson de Jesús Montoya Sánchez
LA MATERNIDAD DIVINA                                                  ;Sur;Calle 86 Nº 47-27                                      ;San Fernando  ;255-54-16      ;Pbro. John Freddy Tamayo Cruz
MADRE DEL SALVADOR                                                    ;Sur;Carrera 67A Nº 75-30 ;El Pedregal;316-05-28     ;Pbro. Oriel Blanco Quintero
MARÍA AUXILIADORA                                                     ;Sur;Carrera.58 B Nº 47 C -16                                              ;;371-77-84      ;Pbro. Juan Manuel García Sánchez              
MARÍA MADRE DE CRISTO                                                 ;Sur;Vereda Los Gómez                                                      ;;376-34-71      ;Pbro. John Fredy Valencia Patiño
MARÍA MADRE DE LA IGLESIA                                             ;Sur;Calle 70 Nº 52 D-23                                        ;Santamaría;371-13-30      ;Pbro. Juan Carlos Velásquez Rúa 
NUESTRA SEÑORA DEL ROSARIO-ITAGUÍ                                     ;Sur;Calle 51 Nº 49-35                                                     ;;281-00-80      ;Pbro. Luis Alberto Ángel Álvarez
SAN PÍO X                                                             ;Sur;Diagonal 47 Nº 32-03                                                  ;;3714475/2811613;Pbro. Pedro Pablo Agudelo Gutiérrez
SANTA BERNARDITA                                                      ;Sur;Calle 62  Nº 57 -23                                                   ;;3736742;Pbro. Luis Felipe Botero Tobón
SANTA MARÍA REINA DE LA PAZ                                           ;Sur;Carrera 55A Nº 39-08                                                  ;;372-21-02      ;Pbro. Álvaro de Jesús Betancur Valencia       
CUASIPARROQUIA SAN BENILDO ROMANSON;Sur;Carrera 75 N° 50E Sur-127;;322-74-76 / 350-8232000;Pbro. John Esteban Urrego Márquez
JESÚS EUCARISTÍA                                                      ;Sur;Calle 42 Sur Nº 69A-48                                                     ;Sector Villaloma;376-80-81;Pbro. Wilmar Darío Galeano Castrillón  
LA ERMITA DE LA VIRGEN DE CHIQUINQUIRÁ                                ;Sur;Carrera 55 Nº 95 Sur 160                        ;"Sector ""Pueblo Viejo"" ";3073939 - 300-6405948    ;Pbro. Carlos Alfredo Cardona Soto   
LA TRINIDAD                                                           ;Sur;Calle 41C Sur Nº 62-23 ;Pradito ;286-15-67      ;Pbro. Sigifredo Soto Restrepo     
MARÍA REINA DE LA FAMILIA;Sur;Calle 48 Sur Nº 72-235 (Vergel);;286-09-27      ;Pbro. Diego Fernando Gavíria Carvajal
MARIE POUSSEPIN                                                       ;Sur;Calle 38 A Sur Nº 66A-70  ;Santa Rita;286-84-95/286-07-10  ;Pbro. Luis Arturo Estrada Correa
NUESTRA SEÑORA DE LA RECONCILIACIÓN                                   ;Sur;Carrera 51 Nº 95 C Sur 47                                             ;;279-29-06/279-22-24;Pbro. Juan Camilo Puerta
NUESTRA SEÑORA DE LOS ÁNGELES                                         ;Sur;Calle 29 Nº 50D-24                                 ;Barrio Yarumito    ;277-63-80      ;Pbro. Marco Tulio Murillo Obando         
NUESTRA SEÑORA DEL ROSARIO DE CHIQUINQUIRÁ                            ;Sur;Calle 81 Sur   61-16                                   ;La Estrella   ;279-01-41/279-84-16;Pbro. Gustavo de Jesús Grisales Giraldo  
SAN ANTONIO DE PRADO                                                  ;Sur;Calle 42 Sur Nº 80-32                                               ;;286-00-60/286-22-17;Pbro. Eduardo Yepes Pérez
SAN FRANCISCO DE PAULA                                                ;Sur;Carrera 70 Nº 27-40                         ;Barrio San Francisco;309-01-24      ;Pbro. Raúl Fernando Vásquez Morales
SAN GABRIEL ARCÁNGEL                                                  ;Sur;Calle 35CC Nº 69B-59                                                  ;;338-22-08     ;Pbro. Juan Carlos Pérez Ferreiro              
SAN JOSÉ DEL LIMONAR                                                  ;Sur;Carrera 62 Nº. 55 sur 69 ;El Limonar Nº 2;286-32-82/302-85-88;Pbro. Juan Bernardo Vargas Sierra
SAN JUAN ÉUDES                                                        ;Sur;Calle 34A Nº 54A-41                                                ;Itagui  ;338-40-85        ;Pbro. Luis Hernando Ángel Arango
SAN MARTÍN DE PORRES-Ancón                                            ;Sur;Carrera 55 Nº 83C Sur-37 Ancón                                        ;;309-22-38;Pbro. Osvaldo de Jesús Ochoa Díaz          
SAN PEDRO APÓSTOL-Bariloche                                           ;Sur;Carrera 63 Nº  24A-20                                                 ;;379-21-26        ;Pbro. Jovanny Humberto Salazar Posada
SANTA TERESA DE CALCUTA-Itagüí                                               ;Sur;Carrera 52D Nº 75AA Sur 295/Casa Cural Carrera 52D Nº 75AA Sur 309;;612-98-82;Pbro. Nicolás de Jesús Quintero Puerta
SANTO TOMÁS APÓSTOL                                                   ;Sur;Carrera 61 Nº 37A-81                                                  ;;612-97-72;Pbro. José Luis Arroyave Osorio
SANTOS ÁNGELES CUSTODIOS                                              ;Sur;Calle 53 Sur Nº 55D-19 ;El Limonar 1;559-40-98;Pbro. Jaime Alonso Torres Lezcano
